-- Merging decision tree log ---
manifest
ADDED from C:\Users\Snake\AndroidStudioProjects\ar\aRBaseLib\src\main\AndroidManifest.xml:2:1-8:12
INJECTED from C:\Users\Snake\AndroidStudioProjects\ar\aRBaseLib\src\main\AndroidManifest.xml:2:1-8:12
INJECTED from C:\Users\Snake\AndroidStudioProjects\ar\aRBaseLib\src\main\AndroidManifest.xml:2:1-8:12
INJECTED from C:\Users\Snake\AndroidStudioProjects\ar\aRBaseLib\src\main\AndroidManifest.xml:2:1-8:12
INJECTED from C:\Users\Snake\AndroidStudioProjects\ar\aRBaseLib\src\main\AndroidManifest.xml:2:1-8:12
INJECTED from C:\Users\Snake\AndroidStudioProjects\ar\aRBaseLib\src\main\AndroidManifest.xml:2:1-8:12
INJECTED from C:\Users\Snake\AndroidStudioProjects\ar\aRBaseLib\src\main\AndroidManifest.xml:2:1-8:12
	package
		ADDED from C:\Users\Snake\AndroidStudioProjects\ar\aRBaseLib\src\main\AndroidManifest.xml:3:7-38
		INJECTED from C:\Users\Snake\AndroidStudioProjects\ar\aRBaseLib\src\main\AndroidManifest.xml
		INJECTED from C:\Users\Snake\AndroidStudioProjects\ar\aRBaseLib\src\main\AndroidManifest.xml
	android:versionName
		ADDED from C:\Users\Snake\AndroidStudioProjects\ar\aRBaseLib\src\main\AndroidManifest.xml:5:7-32
		INJECTED from C:\Users\Snake\AndroidStudioProjects\ar\aRBaseLib\src\main\AndroidManifest.xml
		INJECTED from C:\Users\Snake\AndroidStudioProjects\ar\aRBaseLib\src\main\AndroidManifest.xml
	xmlns:android
		ADDED from C:\Users\Snake\AndroidStudioProjects\ar\aRBaseLib\src\main\AndroidManifest.xml:2:11-69
	android:versionCode
		ADDED from C:\Users\Snake\AndroidStudioProjects\ar\aRBaseLib\src\main\AndroidManifest.xml:4:7-30
		INJECTED from C:\Users\Snake\AndroidStudioProjects\ar\aRBaseLib\src\main\AndroidManifest.xml
		INJECTED from C:\Users\Snake\AndroidStudioProjects\ar\aRBaseLib\src\main\AndroidManifest.xml
uses-sdk
ADDED from C:\Users\Snake\AndroidStudioProjects\ar\aRBaseLib\src\main\AndroidManifest.xml:6:5-72
INJECTED from C:\Users\Snake\AndroidStudioProjects\ar\aRBaseLib\src\main\AndroidManifest.xml:6:5-72
INJECTED from C:\Users\Snake\AndroidStudioProjects\ar\aRBaseLib\src\main\AndroidManifest.xml:6:5-72
INJECTED from C:\Users\Snake\AndroidStudioProjects\ar\aRBaseLib\src\main\AndroidManifest.xml:6:5-72
INJECTED from C:\Users\Snake\AndroidStudioProjects\ar\aRBaseLib\src\main\AndroidManifest.xml:6:5-72
	android:targetSdkVersion
		ADDED from C:\Users\Snake\AndroidStudioProjects\ar\aRBaseLib\src\main\AndroidManifest.xml:6:15-44
		INJECTED from C:\Users\Snake\AndroidStudioProjects\ar\aRBaseLib\src\main\AndroidManifest.xml
		INJECTED from C:\Users\Snake\AndroidStudioProjects\ar\aRBaseLib\src\main\AndroidManifest.xml
	android:minSdkVersion
		ADDED from C:\Users\Snake\AndroidStudioProjects\ar\aRBaseLib\src\main\AndroidManifest.xml:6:45-70
		INJECTED from C:\Users\Snake\AndroidStudioProjects\ar\aRBaseLib\src\main\AndroidManifest.xml
		INJECTED from C:\Users\Snake\AndroidStudioProjects\ar\aRBaseLib\src\main\AndroidManifest.xml
