-- Merging decision tree log ---
manifest
ADDED from C:\Users\Snake\AndroidStudioProjects\ar\objViewer\src\main\AndroidManifest.xml:2:1-33:12
INJECTED from C:\Users\Snake\AndroidStudioProjects\ar\objViewer\src\main\AndroidManifest.xml:2:1-33:12
INJECTED from C:\Users\Snake\AndroidStudioProjects\ar\objViewer\src\main\AndroidManifest.xml:2:1-33:12
INJECTED from C:\Users\Snake\AndroidStudioProjects\ar\objViewer\src\main\AndroidManifest.xml:2:1-33:12
INJECTED from C:\Users\Snake\AndroidStudioProjects\ar\objViewer\src\main\AndroidManifest.xml:2:1-33:12
INJECTED from C:\Users\Snake\AndroidStudioProjects\ar\objViewer\src\main\AndroidManifest.xml:2:1-33:12
INJECTED from C:\Users\Snake\AndroidStudioProjects\ar\objViewer\src\main\AndroidManifest.xml:2:1-33:12
	package
		ADDED from C:\Users\Snake\AndroidStudioProjects\ar\objViewer\src\main\AndroidManifest.xml:3:5-44
		INJECTED from C:\Users\Snake\AndroidStudioProjects\ar\objViewer\src\main\AndroidManifest.xml
		INJECTED from C:\Users\Snake\AndroidStudioProjects\ar\objViewer\src\main\AndroidManifest.xml
	android:versionName
		ADDED from C:\Users\Snake\AndroidStudioProjects\ar\objViewer\src\main\AndroidManifest.xml:5:5-34
		INJECTED from C:\Users\Snake\AndroidStudioProjects\ar\objViewer\src\main\AndroidManifest.xml
		INJECTED from C:\Users\Snake\AndroidStudioProjects\ar\objViewer\src\main\AndroidManifest.xml
	xmlns:android
		ADDED from C:\Users\Snake\AndroidStudioProjects\ar\objViewer\src\main\AndroidManifest.xml:2:11-69
	android:versionCode
		ADDED from C:\Users\Snake\AndroidStudioProjects\ar\objViewer\src\main\AndroidManifest.xml:4:5-28
		INJECTED from C:\Users\Snake\AndroidStudioProjects\ar\objViewer\src\main\AndroidManifest.xml
		INJECTED from C:\Users\Snake\AndroidStudioProjects\ar\objViewer\src\main\AndroidManifest.xml
uses-sdk
ADDED from C:\Users\Snake\AndroidStudioProjects\ar\objViewer\src\main\AndroidManifest.xml:7:5-9:7
INJECTED from C:\Users\Snake\AndroidStudioProjects\ar\objViewer\src\main\AndroidManifest.xml:7:5-9:7
INJECTED from C:\Users\Snake\AndroidStudioProjects\ar\objViewer\src\main\AndroidManifest.xml:7:5-9:7
INJECTED from C:\Users\Snake\AndroidStudioProjects\ar\objViewer\src\main\AndroidManifest.xml:7:5-9:7
INJECTED from C:\Users\Snake\AndroidStudioProjects\ar\objViewer\src\main\AndroidManifest.xml:7:5-9:7
	android:targetSdkVersion
		INJECTED from C:\Users\Snake\AndroidStudioProjects\ar\objViewer\src\main\AndroidManifest.xml
		ADDED from C:\Users\Snake\AndroidStudioProjects\ar\objViewer\src\main\AndroidManifest.xml:7:5-9:7
		INJECTED from C:\Users\Snake\AndroidStudioProjects\ar\objViewer\src\main\AndroidManifest.xml
	android:minSdkVersion
		ADDED from C:\Users\Snake\AndroidStudioProjects\ar\objViewer\src\main\AndroidManifest.xml:8:9-34
		INJECTED from C:\Users\Snake\AndroidStudioProjects\ar\objViewer\src\main\AndroidManifest.xml
		INJECTED from C:\Users\Snake\AndroidStudioProjects\ar\objViewer\src\main\AndroidManifest.xml
application
ADDED from C:\Users\Snake\AndroidStudioProjects\ar\objViewer\src\main\AndroidManifest.xml:10:5-32:19
	android:label
		ADDED from C:\Users\Snake\AndroidStudioProjects\ar\objViewer\src\main\AndroidManifest.xml:11:9-41
activity#nz.gen.geek_central.ObjViewer.Main
ADDED from C:\Users\Snake\AndroidStudioProjects\ar\objViewer\src\main\AndroidManifest.xml:13:9-28:20
	android:label
		ADDED from C:\Users\Snake\AndroidStudioProjects\ar\objViewer\src\main\AndroidManifest.xml:15:13-45
	android:name
		ADDED from C:\Users\Snake\AndroidStudioProjects\ar\objViewer\src\main\AndroidManifest.xml:14:13-32
intent-filter#action:name:android.intent.action.MAIN+category:name:android.intent.category.LAUNCHER
ADDED from C:\Users\Snake\AndroidStudioProjects\ar\objViewer\src\main\AndroidManifest.xml:17:13-20:29
action#android.intent.action.MAIN
ADDED from C:\Users\Snake\AndroidStudioProjects\ar\objViewer\src\main\AndroidManifest.xml:18:17-68
	android:name
		ADDED from C:\Users\Snake\AndroidStudioProjects\ar\objViewer\src\main\AndroidManifest.xml:18:25-66
category#android.intent.category.LAUNCHER
ADDED from C:\Users\Snake\AndroidStudioProjects\ar\objViewer\src\main\AndroidManifest.xml:19:17-76
	android:name
		ADDED from C:\Users\Snake\AndroidStudioProjects\ar\objViewer\src\main\AndroidManifest.xml:19:27-74
intent-filter#action:name:android.intent.action.VIEW+category:name:android.intent.category.DEFAULT+data:mimeType:model/obj+data:pathPattern:.*\\.obj+data:scheme:file
ADDED from C:\Users\Snake\AndroidStudioProjects\ar\objViewer\src\main\AndroidManifest.xml:21:13-27:29
action#android.intent.action.VIEW
ADDED from C:\Users\Snake\AndroidStudioProjects\ar\objViewer\src\main\AndroidManifest.xml:22:17-68
	android:name
		ADDED from C:\Users\Snake\AndroidStudioProjects\ar\objViewer\src\main\AndroidManifest.xml:22:25-66
category#android.intent.category.DEFAULT
ADDED from C:\Users\Snake\AndroidStudioProjects\ar\objViewer\src\main\AndroidManifest.xml:23:17-75
	android:name
		ADDED from C:\Users\Snake\AndroidStudioProjects\ar\objViewer\src\main\AndroidManifest.xml:23:27-73
data
ADDED from C:\Users\Snake\AndroidStudioProjects\ar\objViewer\src\main\AndroidManifest.xml:24:17-46
	android:scheme
		ADDED from C:\Users\Snake\AndroidStudioProjects\ar\objViewer\src\main\AndroidManifest.xml:24:23-44
	android:pathPattern
		ADDED from C:\Users\Snake\AndroidStudioProjects\ar\objViewer\src\main\AndroidManifest.xml:25:23-53
	android:mimeType
		ADDED from C:\Users\Snake\AndroidStudioProjects\ar\objViewer\src\main\AndroidManifest.xml:26:23-51
activity#nz.gen.geek_central.ObjViewer.Picker
ADDED from C:\Users\Snake\AndroidStudioProjects\ar\objViewer\src\main\AndroidManifest.xml:29:9-31:11
	android:name
		ADDED from C:\Users\Snake\AndroidStudioProjects\ar\objViewer\src\main\AndroidManifest.xml:30:13-34
